Business Analytics Club Tidyverse Introduction
…
The glimpse function is very similar to base Rs str function. We can see that there are 53940 rows in the data set and 11 columns. If we want to see just the number of rows and columns without any of the data we could use the dim function, which takes a single object as an input. The %>% symbol is called the pipe operator. This takes the output of one statement and passes it onto the next statement. In this chunk of code you can read it as I have the diamonds data, then I use the glimpse function to look at it.

Dplyr

Dplyr is one of the most important packages included in the tidyverse. It provides functions, or verbs, that allow you to easily manipulate data. In this section we will go over the select, filter, arrange, mutate and summarize verbs. To download a cheat sheet for common dplyr functions click here.

Select

The select verb allows you to select only certain columns from the data set. It is not very useful with the data we are using ((there are only 11, but can be very useful when working with data with 100s of columns.

# Select just price, caret, cut, color and clarity
diamonds %>% 
    select(price, carat, cut, color, clarity)

## # A tibble: 53,940 x 5
##    price carat cut       color clarity
##    <dbl> <dbl> <chr>     <chr> <chr>  
##  1   326 0.23  Ideal     E     SI2    
##  2   326 0.21  Premium   E     SI1    
##  3   327 0.23  Good      E     VS1    
##  4   334 0.290 Premium   I     VS2    
##  5   335 0.31  Good      J     SI2    
##  6   336 0.24  Very Good J     VVS2   
##  7   336 0.24  Very Good I     VVS1   
##  8   337 0.26  Very Good H     SI1    
##  9   337 0.22  Fair      E     VS2    
## 10   338 0.23  Very Good H     VS1    
## # ... with 53,930 more rows

# Select that start with c
diamonds %>% 
    select(starts_with("c"))

## # A tibble: 53,940 x 4
##    carat cut       color clarity
##    <dbl> <chr>     <chr> <chr>  
##  1 0.23  Ideal     E     SI2    
##  2 0.21  Premium   E     SI1    
##  3 0.23  Good      E     VS1    
##  4 0.290 Premium   I     VS2    
##  5 0.31  Good      J     SI2    
##  6 0.24  Very Good J     VVS2   
##  7 0.24  Very Good I     VVS1   
##  8 0.26  Very Good H     SI1    
##  9 0.22  Fair      E     VS2    
## 10 0.23  Very Good H     VS1    
## # ... with 53,930 more rows

# Select columns that end with e
diamonds %>% 
    select(ends_with("e"))

## # A tibble: 53,940 x 2
##    table price
##    <dbl> <dbl>
##  1    55   326
##  2    61   326
##  3    65   327
##  4    58   334
##  5    58   335
##  6    57   336
##  7    57   336
##  8    55   337
##  9    61   337
## 10    61   338
## # ... with 53,930 more rows

# Select columns that contain ar
diamonds %>% 
    select(contains("ar"))

## # A tibble: 53,940 x 2
##    carat clarity
##    <dbl> <chr>  
##  1 0.23  SI2    
##  2 0.21  SI1    
##  3 0.23  VS1    
##  4 0.290 VS2    
##  5 0.31  SI2    
##  6 0.24  VVS2   
##  7 0.24  VVS1   
##  8 0.26  SI1    
##  9 0.22  VS2    
## 10 0.23  VS1    
## # ... with 53,930 more rows

# Select columns from carat to price
diamonds %>% 
    select(carat:price)

## # A tibble: 53,940 x 7
##    carat cut       color clarity depth table price
##    <dbl> <chr>     <chr> <chr>   <dbl> <dbl> <dbl>
##  1 0.23  Ideal     E     SI2      61.5    55   326
##  2 0.21  Premium   E     SI1      59.8    61   326
##  3 0.23  Good      E     VS1      56.9    65   327
##  4 0.290 Premium   I     VS2      62.4    58   334
##  5 0.31  Good      J     SI2      63.3    58   335
##  6 0.24  Very Good J     VVS2     62.8    57   336
##  7 0.24  Very Good I     VVS1     62.3    57   336
##  8 0.26  Very Good H     SI1      61.9    55   337
##  9 0.22  Fair      E     VS2      65.1    61   337
## 10 0.23  Very Good H     VS1      59.4    61   338
## # ... with 53,930 more rows

# Remove the color column from the dataset, do not save it
diamonds %>% 
    select(-color)

## # A tibble: 53,940 x 10
##       X1 carat cut       clarity depth table price     x     y     z
##    <dbl> <dbl> <chr>     <chr>   <dbl> <dbl> <dbl> <dbl> <dbl> <dbl>
##  1     1 0.23  Ideal     SI2      61.5    55   326  3.95  3.98  2.43
##  2     2 0.21  Premium   SI1      59.8    61   326  3.89  3.84  2.31
##  3     3 0.23  Good      VS1      56.9    65   327  4.05  4.07  2.31
##  4     4 0.290 Premium   VS2      62.4    58   334  4.2   4.23  2.63
##  5     5 0.31  Good      SI2      63.3    58   335  4.34  4.35  2.75
##  6     6 0.24  Very Good VVS2     62.8    57   336  3.94  3.96  2.48
##  7     7 0.24  Very Good VVS1     62.3    57   336  3.95  3.98  2.47
##  8     8 0.26  Very Good SI1      61.9    55   337  4.07  4.11  2.53
##  9     9 0.22  Fair      VS2      65.1    61   337  3.87  3.78  2.49
## 10    10 0.23  Very Good VS1      59.4    61   338  4     4.05  2.39
## # ... with 53,930 more rows

Filter

The filter verb allows you to subset observations.

# Filter for price over $500
diamonds %>% 
    filter(price > 500)

## # A tibble: 52,191 x 11
##       X1 carat cut       color clarity depth table price     x     y     z
##    <dbl> <dbl> <chr>     <chr> <chr>   <dbl> <dbl> <dbl> <dbl> <dbl> <dbl>
##  1    61  0.35 Ideal     I     VS1      60.9  57     552  4.54  4.59  2.78
##  2    62  0.3  Premium   D     SI1      62.6  59     552  4.23  4.27  2.66
##  3    63  0.3  Ideal     D     SI1      62.5  57     552  4.29  4.32  2.69
##  4    64  0.3  Ideal     D     SI1      62.1  56     552  4.3   4.33  2.68
##  5    65  0.42 Premium   I     SI2      61.5  59     552  4.78  4.84  2.96
##  6    66  0.28 Ideal     G     VVS2     61.4  56     553  4.19  4.22  2.58
##  7    67  0.32 Ideal     I     VVS1     62    55.3   553  4.39  4.42  2.73
##  8    68  0.31 Very Good G     SI1      63.3  57     553  4.33  4.3   2.73
##  9    69  0.31 Premium   G     SI1      61.8  58     553  4.35  4.32  2.68
## 10    70  0.24 Premium   E     VVS1     60.7  58     553  4.01  4.03  2.44
## # ... with 52,181 more rows

# Filter for only Good and Very Good cut diamonds
diamonds %>% 
    filter(cut == c("Good", "Very Good"))

## # A tibble: 8,449 x 11
##       X1 carat cut       color clarity depth table price     x     y     z
##    <dbl> <dbl> <chr>     <chr> <chr>   <dbl> <dbl> <dbl> <dbl> <dbl> <dbl>
##  1     3  0.23 Good      E     VS1      56.9    65   327  4.05  4.07  2.31
##  2     5  0.31 Good      J     SI2      63.3    58   335  4.34  4.35  2.75
##  3     6  0.24 Very Good J     VVS2     62.8    57   336  3.94  3.96  2.48
##  4     8  0.26 Very Good H     SI1      61.9    55   337  4.07  4.11  2.53
##  5    10  0.23 Very Good H     VS1      59.4    61   338  4     4.05  2.39
##  6    11  0.3  Good      J     SI1      64      55   339  4.25  4.28  2.73
##  7    19  0.3  Good      J     SI1      63.8    56   351  4.23  4.26  2.71
##  8    20  0.3  Very Good J     SI1      62.7    59   351  4.21  4.27  2.66
##  9    21  0.3  Good      I     SI2      63.3    56   351  4.26  4.3   2.71
## 10    22  0.23 Very Good E     VS2      63.8    55   352  3.85  3.92  2.48
## # ... with 8,439 more rows

Arrange

The Arrange verb allows you to change the order of rows in the data set.

# Arrange the data so that it is descending by price
diamonds %>% 
    arrange(desc(price))

## # A tibble: 53,940 x 11
##       X1 carat cut       color clarity depth table price     x     y     z
##    <dbl> <dbl> <chr>     <chr> <chr>   <dbl> <dbl> <dbl> <dbl> <dbl> <dbl>
##  1 27750  2.29 Premium   I     VS2      60.8    60 18823  8.5   8.47  5.16
##  2 27749  2    Very Good G     SI1      63.5    56 18818  7.9   7.97  5.04
##  3 27748  1.51 Ideal     G     IF       61.7    55 18806  7.37  7.41  4.56
##  4 27747  2.07 Ideal     G     SI2      62.5    55 18804  8.2   8.13  5.11
##  5 27746  2    Very Good H     SI1      62.8    57 18803  7.95  8     5.01
##  6 27745  2.29 Premium   I     SI1      61.8    59 18797  8.52  8.45  5.24
##  7 27743  2.04 Premium   H     SI1      58.1    60 18795  8.37  8.28  4.84
##  8 27744  2    Premium   I     VS1      60.8    59 18795  8.13  8.02  4.91
##  9 27741  1.71 Premium   F     VS2      62.3    59 18791  7.57  7.53  4.7 
## 10 27742  2.15 Ideal     G     SI2      62.6    54 18791  8.29  8.35  5.21
## # ... with 53,930 more rows

# Arrange the data so that is in increasing by price
diamonds %>% 
    arrange(price)

## # A tibble: 53,940 x 11
##       X1 carat cut       color clarity depth table price     x     y     z
##    <dbl> <dbl> <chr>     <chr> <chr>   <dbl> <dbl> <dbl> <dbl> <dbl> <dbl>
##  1     1 0.23  Ideal     E     SI2      61.5    55   326  3.95  3.98  2.43
##  2     2 0.21  Premium   E     SI1      59.8    61   326  3.89  3.84  2.31
##  3     3 0.23  Good      E     VS1      56.9    65   327  4.05  4.07  2.31
##  4     4 0.290 Premium   I     VS2      62.4    58   334  4.2   4.23  2.63
##  5     5 0.31  Good      J     SI2      63.3    58   335  4.34  4.35  2.75
##  6     6 0.24  Very Good J     VVS2     62.8    57   336  3.94  3.96  2.48
##  7     7 0.24  Very Good I     VVS1     62.3    57   336  3.95  3.98  2.47
##  8     8 0.26  Very Good H     SI1      61.9    55   337  4.07  4.11  2.53
##  9     9 0.22  Fair      E     VS2      65.1    61   337  3.87  3.78  2.49
## 10    10 0.23  Very Good H     VS1      59.4    61   338  4     4.05  2.39
## # ... with 53,930 more rows

Mutate

The mutate verb allows you to add new columns to your data set, or overwrite existing columns.

# Make a new column called price_plus_one, add one to the price
(diamonds <- diamonds %>% 
     mutate(price_plus_one = price + 1))

## # A tibble: 53,940 x 12
##       X1 carat cut   color clarity depth table price     x     y     z
##    <dbl> <dbl> <chr> <chr> <chr>   <dbl> <dbl> <dbl> <dbl> <dbl> <dbl>
##  1     1 0.23  Ideal E     SI2      61.5    55   326  3.95  3.98  2.43
##  2     2 0.21  Prem~ E     SI1      59.8    61   326  3.89  3.84  2.31
##  3     3 0.23  Good  E     VS1      56.9    65   327  4.05  4.07  2.31
##  4     4 0.290 Prem~ I     VS2      62.4    58   334  4.2   4.23  2.63
##  5     5 0.31  Good  J     SI2      63.3    58   335  4.34  4.35  2.75
##  6     6 0.24  Very~ J     VVS2     62.8    57   336  3.94  3.96  2.48
##  7     7 0.24  Very~ I     VVS1     62.3    57   336  3.95  3.98  2.47
##  8     8 0.26  Very~ H     SI1      61.9    55   337  4.07  4.11  2.53
##  9     9 0.22  Fair  E     VS2      65.1    61   337  3.87  3.78  2.49
## 10    10 0.23  Very~ H     VS1      59.4    61   338  4     4.05  2.39
## # ... with 53,930 more rows, and 1 more variable: price_plus_one <dbl>

# If the column is a character column, change it to a factor, save as diamonds_factor
(diamonds_factor <- diamonds %>% 
    mutate_if(is.character, factor))

## # A tibble: 53,940 x 12
##       X1 carat cut   color clarity depth table price     x     y     z
##    <dbl> <dbl> <fct> <fct> <fct>   <dbl> <dbl> <dbl> <dbl> <dbl> <dbl>
##  1     1 0.23  Ideal E     SI2      61.5    55   326  3.95  3.98  2.43
##  2     2 0.21  Prem~ E     SI1      59.8    61   326  3.89  3.84  2.31
##  3     3 0.23  Good  E     VS1      56.9    65   327  4.05  4.07  2.31
##  4     4 0.290 Prem~ I     VS2      62.4    58   334  4.2   4.23  2.63
##  5     5 0.31  Good  J     SI2      63.3    58   335  4.34  4.35  2.75
##  6     6 0.24  Very~ J     VVS2     62.8    57   336  3.94  3.96  2.48
##  7     7 0.24  Very~ I     VVS1     62.3    57   336  3.95  3.98  2.47
##  8     8 0.26  Very~ H     SI1      61.9    55   337  4.07  4.11  2.53
##  9     9 0.22  Fair  E     VS2      65.1    61   337  3.87  3.78  2.49
## 10    10 0.23  Very~ H     VS1      59.4    61   338  4     4.05  2.39
## # ... with 53,930 more rows, and 1 more variable: price_plus_one <dbl>

# Check if cut is a factor using class()
class(diamonds_factor$cut)

## [1] "factor"

Since we used the mutate_if function to turn all character variables to factor variables, the cut variable is not ordered as it should be. We can see the different levels, but there is no order (Ideal should be the greatest). We will use the cut variable to create an ordered factor later.

# Make a new column (price_factor) that is a factor, and is equal to 1 if the price of a diamonds is greater than the median price, and 0 if it is lower, save the result to diamonds
(diamonds <- diamonds %>% 
     mutate(price_factor = factor(ifelse(price > median(price), 1, 0))))

## # A tibble: 53,940 x 13
##       X1 carat cut   color clarity depth table price     x     y     z
##    <dbl> <dbl> <chr> <chr> <chr>   <dbl> <dbl> <dbl> <dbl> <dbl> <dbl>
##  1     1 0.23  Ideal E     SI2      61.5    55   326  3.95  3.98  2.43
##  2     2 0.21  Prem~ E     SI1      59.8    61   326  3.89  3.84  2.31
##  3     3 0.23  Good  E     VS1      56.9    65   327  4.05  4.07  2.31
##  4     4 0.290 Prem~ I     VS2      62.4    58   334  4.2   4.23  2.63
##  5     5 0.31  Good  J     SI2      63.3    58   335  4.34  4.35  2.75
##  6     6 0.24  Very~ J     VVS2     62.8    57   336  3.94  3.96  2.48
##  7     7 0.24  Very~ I     VVS1     62.3    57   336  3.95  3.98  2.47
##  8     8 0.26  Very~ H     SI1      61.9    55   337  4.07  4.11  2.53
##  9     9 0.22  Fair  E     VS2      65.1    61   337  3.87  3.78  2.49
## 10    10 0.23  Very~ H     VS1      59.4    61   338  4     4.05  2.39
## # ... with 53,930 more rows, and 2 more variables: price_plus_one <dbl>,
## #   price_factor <fct>
…
# Generate mean of price for each cut and clarity
diamonds %>% 
    group_by(cut, clarity) %>% 
    summarize(mean(price))

## `summarise()` regrouping output by 'cut' (override with `.groups` argument)

## # A tibble: 40 x 3
## # Groups:   cut [5]
##    cut   clarity `mean(price)`
##    <chr> <chr>           <dbl>
##  1 Fair  I1              3704.
##  2 Fair  IF              1912.
##  3 Fair  SI1             4208.
##  4 Fair  SI2             5174.
##  5 Fair  VS1             4165.
##  6 Fair  VS2             4175.
##  7 Fair  VVS1            3871.
##  8 Fair  VVS2            3350.
##  9 Good  I1              3597.
## 10 Good  IF              4098.
## # ... with 30 more rows
…
